Gap Term 2023
…
このコードをbarcode-analysis.Rとして保存してください：

library(readxl)

blast_animals <- read_excel(
  "data_raw/4_相同性が高い生物種リスト(BLAST結果10位まで)_ALL.xlsx"
)

データの読み込み

blast_animalsを打つと、読み込まれたデータが表示される：

blast_animals

# A tibble: 106 × 55
   `#OTU ID` `Chiba-1-ZBJ` `Chiba-2-ZBJ` `Tsudanuma-ZBJ` `Gyotoku-ZBJ`
   <chr>             <dbl>         <dbl>           <dbl>         <dbl>
 1 ASV_001           21793             0            4312             0
 2 ASV_002               0         18828               0             0
 3 ASV_003               0             0               0         14991
 4 ASV_004               0         12144               0             0
 5 ASV_005               0             0               0          7550
 6 ASV_006               0             0            6918             0
 7 ASV_007               0             0               0          6518
 8 ASV_008               0             0               0          5434
 9 ASV_009               0          5276               0             0
10 ASV_010               0             0            4904             0
# ℹ 96 more rows
# ℹ 50 more variables: Accession_top1 <chr>, Target_top1 <chr>,
#   Identity_top1 <dbl>, Alignment_length_top1 <dbl>, Species_top1 <chr>,
#   Accession_top2 <chr>, Target_top2 <chr>, Identity_top2 <dbl>,
#   Alignment_length_top2 <dbl>, Species_top2 <chr>, Accession_top3 <chr>,
#   Target_top3 <chr>, Identity_top3 <dbl>, Alignment_length_top3 <dbl>,
#   Species_top3 <chr>, Accession_top4 <chr>, Target_top4 <chr>, …
…
データを整える

以下のコードを試してください：

library(readxl)
library(janitor)

blast_animals <- read_excel(
  "data_raw/4_相同性が高い生物種リスト(BLAST結果10位まで)_ALL.xlsx"
)

clean_names(blast_animals)

# A tibble: 106 × 55
   number_otu_id chiba_1_zbj chiba_2_zbj tsudanuma_zbj gyotoku_zbj
   <chr>               <dbl>       <dbl>         <dbl>       <dbl>
 1 ASV_001             21793           0          4312           0
 2 ASV_002                 0       18828             0           0
 3 ASV_003                 0           0             0       14991
 4 ASV_004                 0       12144             0           0
 5 ASV_005                 0           0             0        7550
 6 ASV_006                 0           0          6918           0
 7 ASV_007                 0           0             0        6518
 8 ASV_008                 0           0             0        5434
 9 ASV_009                 0        5276             0           0
10 ASV_010                 0           0          4904           0
# ℹ 96 more rows
# ℹ 50 more variables: accession_top1 <chr>, target_top1 <chr>,
#   identity_top1 <dbl>, alignment_length_top1 <dbl>, species_top1 <chr>,
#   accession_top2 <chr>, target_top2 <chr>, identity_top2 <dbl>,
#   alignment_length_top2 <dbl>, species_top2 <chr>, accession_top3 <chr>,
#   target_top3 <chr>, identity_top3 <dbl>, alignment_length_top3 <dbl>,
#   species_top3 <chr>, accession_top4 <chr>, target_top4 <chr>, …
…
species_top1:一致したシーケンスの和名

_top1は最も近い「当たり」、_top2はその次に高いもの、など

行の名前を変える

生データの行の名前が長くて打ちづらいことがよくある。前回はclean_names()で自動的に名前をと整えたが、さらに短くしたい。

rename()関数で行の名前を変える

blast_animals <- rename(blast_animals, otu = number_otu_id)
blast_animals

# A tibble: 106 × 55
   otu     chiba_1_zbj chiba_2_zbj tsudanuma_zbj gyotoku_zbj accession_top1
   <chr>         <dbl>       <dbl>         <dbl>       <dbl> <chr>         
 1 ASV_001       21793           0          4312           0 MN319604.1    
 2 ASV_002           0       18828             0           0 MK659817.1    
 3 ASV_003           0           0             0       14991 KF492138.1    
 4 ASV_004           0       12144             0           0 KX053593.1    
 5 ASV_005           0           0             0        7550 MH898572.1    
 6 ASV_006           0           0          6918           0 KY039108.1    
 7 ASV_007           0           0             0        6518 JX416292.1    
 8 ASV_008           0           0             0        5434 EU751122.1    
 9 ASV_009           0        5276             0           0 KY270107.1    
10 ASV_010           0           0          4904           0 KX096927.1    
# ℹ 96 more rows
# ℹ 49 more variables: target_top1 <chr>, identity_top1 <dbl>,
#   alignment_length_top1 <dbl>, species_top1 <chr>, accession_top2 <chr>,
#   target_top2 <chr>, identity_top2 <dbl>, alignment_length_top2 <dbl>,
#   species_top2 <chr>, accession_top3 <chr>, target_top3 <chr>,
#   identity_top3 <dbl>, alignment_length_top3 <dbl>, species_top3 <chr>,
#   accession_top4 <chr>, target_top4 <chr>, identity_top4 <dbl>, …

列の順を並び変える

arrange(data, column)

デフォルトで小さいから大きい順

arrange(blast_animals, chiba_1_zbj)

# A tibble: 106 × 55
   otu     chiba_1_zbj chiba_2_zbj tsudanuma_zbj gyotoku_zbj accession_top1
   <chr>         <dbl>       <dbl>         <dbl>       <dbl> <chr>         
 1 ASV_002           0       18828             0           0 MK659817.1    
 2 ASV_003           0           0             0       14991 KF492138.1    
 3 ASV_004           0       12144             0           0 KX053593.1    
 4 ASV_005           0           0             0        7550 MH898572.1    
 5 ASV_006           0           0          6918           0 KY039108.1    
 6 ASV_007           0           0             0        6518 JX416292.1    
 7 ASV_008           0           0             0        5434 EU751122.1    
 8 ASV_009           0        5276             0           0 KY270107.1    
 9 ASV_010           0           0          4904           0 KX096927.1    
10 ASV_011           0           0          4499           0 MT670322.1    
# ℹ 96 more rows
# ℹ 49 more variables: target_top1 <chr>, identity_top1 <dbl>,
#   alignment_length_top1 <dbl>, species_top1 <chr>, accession_top2 <chr>,
#   target_top2 <chr>, identity_top2 <dbl>, alignment_length_top2 <dbl>,
#   species_top2 <chr>, accession_top3 <chr>, target_top3 <chr>,
#   identity_top3 <dbl>, alignment_length_top3 <dbl>, species_top3 <chr>,
#   accession_top4 <chr>, target_top4 <chr>, identity_top4 <dbl>, …

列の順を並び変える

デフォルトで小さい順（あるいは、Aの方）から並ぶ

大きい方（あるいは、Zの方）から並べたい時はdesc()を使う

arrange(blast_animals, desc(chiba_1_zbj))

# A tibble: 106 × 55
   otu     chiba_1_zbj chiba_2_zbj tsudanuma_zbj gyotoku_zbj accession_top1
   <chr>         <dbl>       <dbl>         <dbl>       <dbl> <chr>         
 1 ASV_001       21793           0          4312           0 MN319604.1    
 2 ASV_014        3279           0           207           0 HQ891438.1    
 3 ASV_039         224           0             0           0 KC440139.1    
 4 ASV_044         158           0             0           0 OM830080.1    
 5 ASV_023         147           0           603           0 MT521281.1    
 6 ASV_049         122           0             0           0 MT780697.1    
 7 ASV_052         109           0             0           0 HQ891438.1    
 8 ASV_077          26           0             0           0 MW960413.1    
 9 ASV_083          22           0             0           0 OL664229.1    
10 ASV_085          21           0             0           0 MT554836.1    
# ℹ 96 more rows
# ℹ 49 more variables: target_top1 <chr>, identity_top1 <dbl>,
#   alignment_length_top1 <dbl>, species_top1 <chr>, accession_top2 <chr>,
#   target_top2 <chr>, identity_top2 <dbl>, alignment_length_top2 <dbl>,
#   species_top2 <chr>, accession_top3 <chr>, target_top3 <chr>,
#   identity_top3 <dbl>, alignment_length_top3 <dbl>, species_top3 <chr>,
#   accession_top4 <chr>, target_top4 <chr>, identity_top4 <dbl>, …

列の順を並び変える

arrange(data, column1, column2)で複数の行によって並び変える

arrange(blast_animals, target_top1, identity_top1)

# A tibble: 106 × 55
   otu     chiba_1_zbj chiba_2_zbj tsudanuma_zbj gyotoku_zbj accession_top1
   <chr>         <dbl>       <dbl>         <dbl>       <dbl> <chr>         
 1 ASV_111           0           0             2           0 MH124183.1    
 2 ASV_079          20           0             4           0 MH124181.1    
 3 ASV_055           0          92             0           0 GQ465635.1    
 4 ASV_082           0           0            23           0 GQ465621.1    
 5 ASV_061           0          63             0           0 MW305766.1    
 6 ASV_091           0           0            15           0 KJ654008.1    
 7 ASV_033           0           0           314           0 JX435832.1    
 8 ASV_026           0           0           504           0 LC619089.1    
 9 ASV_023         147           0           603           0 MT521281.1    
10 ASV_051           0           0           111           0 MT957001.1    
# ℹ 96 more rows
# ℹ 49 more variables: target_top1 <chr>, identity_top1 <dbl>,
#   alignment_length_top1 <dbl>, species_top1 <chr>, accession_top2 <chr>,
#   target_top2 <chr>, identity_top2 <dbl>, alignment_length_top2 <dbl>,
#   species_top2 <chr>, accession_top3 <chr>, target_top3 <chr>,
#   identity_top3 <dbl>, alignment_length_top3 <dbl>, species_top3 <chr>,
#   accession_top4 <chr>, target_top4 <chr>, identity_top4 <dbl>, …

行を抜き出す

select(data, column)で行を抜き出す

select(blast_animals, otu, chiba_1_zbj)

# A tibble: 106 × 2
   otu     chiba_1_zbj
   <chr>         <dbl>
 1 ASV_001       21793
 2 ASV_002           0
 3 ASV_003           0
 4 ASV_004           0
 5 ASV_005           0
 6 ASV_006           0
 7 ASV_007           0
 8 ASV_008           0
 9 ASV_009           0
10 ASV_010           0
# ℹ 96 more rows

行を抜き出す

select(data, column1, column2)で行を抜き出す

複数の行を選ぶこともできる

select(blast_animals, otu, chiba_1_zbj, target_top1)

# A tibble: 106 × 3
   otu     chiba_1_zbj target_top1             
   <chr>         <dbl> <chr>                   
 1 ASV_001       21793 Oxidus_gracilis         
 2 ASV_002           0 Drosophila_ficusphila   
 3 ASV_003           0 Spodoptera_depravata    
 4 ASV_004           0 Lepidopsocidae_sp.      
 5 ASV_005           0 Smicronyx_guineanus     
 6 ASV_006           0 Colasposoma_sp.         
 7 ASV_007           0 Parapediasia_teterrellus
 8 ASV_008           0 Philodina_plena         
 9 ASV_009           0 Sitticus_penicillatus   
10 ASV_010           0 Oxidus_riukiarius       
# ℹ 96 more rows

行を抜き出す

数字でも指定できる

select(blast_animals, 1, 2)

# A tibble: 106 × 2
   otu     chiba_1_zbj
   <chr>         <dbl>
 1 ASV_001       21793
 2 ASV_002           0
 3 ASV_003           0
 4 ASV_004           0
 5 ASV_005           0
 6 ASV_006           0
 7 ASV_007           0
 8 ASV_008           0
 9 ASV_009           0
10 ASV_010           0
# ℹ 96 more rows

行を抜き出す

:で行の範囲を指定できる

select(blast_animals, 1:4)

# A tibble: 106 × 4
   otu     chiba_1_zbj chiba_2_zbj tsudanuma_zbj
   <chr>         <dbl>       <dbl>         <dbl>
 1 ASV_001       21793           0          4312
 2 ASV_002           0       18828             0
 3 ASV_003           0           0             0
 4 ASV_004           0       12144             0
 5 ASV_005           0           0             0
 6 ASV_006           0           0          6918
 7 ASV_007           0           0             0
 8 ASV_008           0           0             0
 9 ASV_009           0        5276             0
10 ASV_010           0           0          4904
# ℹ 96 more rows

行を抜き出す

:で行の範囲を指定できる

select(blast_animals, otu:gyotoku_zbj)

# A tibble: 106 × 5
   otu     chiba_1_zbj chiba_2_zbj tsudanuma_zbj gyotoku_zbj
   <chr>         <dbl>       <dbl>         <dbl>       <dbl>
 1 ASV_001       21793           0          4312           0
 2 ASV_002           0       18828             0           0
 3 ASV_003           0           0             0       14991
 4 ASV_004           0       12144             0           0
 5 ASV_005           0           0             0        7550
 6 ASV_006           0           0          6918           0
 7 ASV_007           0           0             0        6518
 8 ASV_008           0           0             0        5434
 9 ASV_009           0        5276             0           0
10 ASV_010           0           0          4904           0
# ℹ 96 more rows
…
列を絞る

filter()である条件に合っている列だけに絞る

filter(blast_animals, identity_top1 > 98)

# A tibble: 58 × 55
   otu     chiba_1_zbj chiba_2_zbj tsudanuma_zbj gyotoku_zbj accession_top1
   <chr>         <dbl>       <dbl>         <dbl>       <dbl> <chr>         
 1 ASV_002           0       18828             0           0 MK659817.1    
 2 ASV_003           0           0             0       14991 KF492138.1    
 3 ASV_006           0           0          6918           0 KY039108.1    
 4 ASV_007           0           0             0        6518 JX416292.1    
 5 ASV_009           0        5276             0           0 KY270107.1    
 6 ASV_011           0           0          4499           0 MT670322.1    
 7 ASV_012           0        3704             0           0 EU414825.1    
 8 ASV_015           0           0             0        2309 OL664327.1    
 9 ASV_016           0           0          2157           0 MT521279.1    
10 ASV_017           0        1919             0           0 MK473841.1    
# ℹ 48 more rows
# ℹ 49 more variables: target_top1 <chr>, identity_top1 <dbl>,
#   alignment_length_top1 <dbl>, species_top1 <chr>, accession_top2 <chr>,
#   target_top2 <chr>, identity_top2 <dbl>, alignment_length_top2 <dbl>,
#   species_top2 <chr>, accession_top3 <chr>, target_top3 <chr>,
#   identity_top3 <dbl>, alignment_length_top3 <dbl>, species_top3 <chr>,
#   accession_top4 <chr>, target_top4 <chr>, identity_top4 <dbl>, …
…
ヒント：write_csv()でcsvファイルを保存することができる

データの変換

mutate()である行のデータを変換することができる。

例えば、identity_top1をパーセントに変える（０から１まで）

# データをBLASTの最も近い結果だけに絞る
top1 <- select(blast_animals, otu, matches("top1$"))
# identity_top1をパーセントに変える（上書き）
mutate(top1, identity_top1 = identity_top1 / 100)

# A tibble: 106 × 6
   otu     accession_top1 target_top1        identity_top1 alignment_length_top1
   <chr>   <chr>          <chr>                      <dbl>                 <dbl>
 1 ASV_001 MN319604.1     Oxidus_gracilis            0.930                   157
 2 ASV_002 MK659817.1     Drosophila_ficusp…         1                       157
 3 ASV_003 KF492138.1     Spodoptera_deprav…         1                       157
 4 ASV_004 KX053593.1     Lepidopsocidae_sp.         0.885                   157
 5 ASV_005 MH898572.1     Smicronyx_guinean…         0.929                   155
 6 ASV_006 KY039108.1     Colasposoma_sp.            1                       157
 7 ASV_007 JX416292.1     Parapediasia_tete…         1                       157
 8 ASV_008 EU751122.1     Philodina_plena            0.935                   154
 9 ASV_009 KY270107.1     Sitticus_penicill…         0.987                   157
10 ASV_010 KX096927.1     Oxidus_riukiarius          0.958                   143
# ℹ 96 more rows
# ℹ 1 more variable: species_top1 <chr>

データの変換

mutate()は新しい行を作ることもできる

# identity_top1をパーセントに変える
mutate(top1, identity_top1_perc = identity_top1 / 100)

# A tibble: 106 × 7
   otu     accession_top1 target_top1        identity_top1 alignment_length_top1
   <chr>   <chr>          <chr>                      <dbl>                 <dbl>
 1 ASV_001 MN319604.1     Oxidus_gracilis             93.0                   157
 2 ASV_002 MK659817.1     Drosophila_ficusp…         100                     157
 3 ASV_003 KF492138.1     Spodoptera_deprav…         100                     157
 4 ASV_004 KX053593.1     Lepidopsocidae_sp.          88.5                   157
 5 ASV_005 MH898572.1     Smicronyx_guinean…          92.9                   155
 6 ASV_006 KY039108.1     Colasposoma_sp.            100                     157
 7 ASV_007 JX416292.1     Parapediasia_tete…         100                     157
 8 ASV_008 EU751122.1     Philodina_plena             93.5                   154
 9 ASV_009 KY270107.1     Sitticus_penicill…          98.7                   157
10 ASV_010 KX096927.1     Oxidus_riukiarius           95.8                   143
# ℹ 96 more rows
# ℹ 2 more variables: species_top1 <chr>, identity_top1_perc <dbl>
…
グループ化

しかし、全体の平均だけを計算してもあまり意味はない。

それよりも、何か毎にデータの集計を行いたい方が多い。

それにはgroup_by()関数を使う。例えば、種ごと。まずはデータのグループを指定する：

blast_animals %>%
  group_by(target_top1)

# A tibble: 106 × 55
# Groups:   target_top1 [86]
   otu     chiba_1_zbj chiba_2_zbj tsudanuma_zbj gyotoku_zbj accession_top1
   <chr>         <dbl>       <dbl>         <dbl>       <dbl> <chr>         
 1 ASV_001       21793           0          4312           0 MN319604.1    
 2 ASV_002           0       18828             0           0 MK659817.1    
 3 ASV_003           0           0             0       14991 KF492138.1    
 4 ASV_004           0       12144             0           0 KX053593.1    
 5 ASV_005           0           0             0        7550 MH898572.1    
 6 ASV_006           0           0          6918           0 KY039108.1    
 7 ASV_007           0           0             0        6518 JX416292.1    
 8 ASV_008           0           0             0        5434 EU751122.1    
 9 ASV_009           0        5276             0           0 KY270107.1    
10 ASV_010           0           0          4904           0 KX096927.1    
# ℹ 96 more rows
# ℹ 49 more variables: target_top1 <chr>, identity_top1 <dbl>,
#   alignment_length_top1 <dbl>, species_top1 <chr>, accession_top2 <chr>,
#   target_top2 <chr>, identity_top2 <dbl>, alignment_length_top2 <dbl>,
#   species_top2 <chr>, accession_top3 <chr>, target_top3 <chr>,
#   identity_top3 <dbl>, alignment_length_top3 <dbl>, species_top3 <chr>,
#   accession_top4 <chr>, target_top4 <chr>, identity_top4 <dbl>, …

グループ化

次に、集計する：

blast_animals %>%
  group_by(target_top1) %>%
  summarize(mean_aln_len = mean(alignment_length_top1))

# A tibble: 86 × 2
   target_top1             mean_aln_len
   <chr>                          <dbl>
 1 Acanthamoeba_hatchetti           162
 2 Adineta_gracilis                 155
 3 Adineta_vaga                     153
 4 Agrotis_segetum                  157
 5 Albugo_sp.                       160
 6 Ambigolimax_valentianus          154
 7 Anisodactylus_signatus           157
 8 Armadillidium_vulgare            157
 9 Atypus_snetsingeri               157
10 Caedius_marinus                  157
# ℹ 76 more rows

グループ化

グループ毎の計算が終わったら、ungroup()でグループの解除をする必要がある場合がある。

blast_animals %>%
  group_by(target_top1) %>%
  summarize(mean_aln_len = mean(alignment_length_top1)) %>%
  ungroup()

# A tibble: 86 × 2
   target_top1             mean_aln_len
   <chr>                          <dbl>
 1 Acanthamoeba_hatchetti           162
 2 Adineta_gracilis                 155
 3 Adineta_vaga                     153
 4 Agrotis_segetum                  157
 5 Albugo_sp.                       160
 6 Ambigolimax_valentianus          154
 7 Anisodactylus_signatus           157
 8 Armadillidium_vulgare            157
 9 Atypus_snetsingeri               157
10 Caedius_marinus                  157
# ℹ 76 more rows
…
